<svg xmlns="http://www.w3.org/2000/svg" width="8.352" height="16.189" viewBox="0 0 8.352 16.189">
  <path id="Path_2364" data-name="Path 2364" d="M1423.738,1176.459h-2.929c-.011-.153-.029-.287-.029-.421q-.014-3.228-.026-6.456c0-.15-.013-.3-.022-.492h-2.43v-2.874c.792-.062,1.593,0,2.415-.042.011-.135.029-.246.029-.357,0-.589-.006-1.178,0-1.768a4.741,4.741,0,0,1,.262-1.584,3.106,3.106,0,0,1,2.518-2.111,6.454,6.454,0,0,1,1.261-.083c.6.007,1.2.056,1.833.088.059.87.025,1.708.038,2.565a2.786,2.786,0,0,1-.289.036c-.371,0-.743,0-1.114,0a3.783,3.783,0,0,0-.611.048.98.98,0,0,0-.891.957c-.041.484-.023.972-.028,1.459,0,.24,0,.479,0,.772h2.846c-.126.994-.245,1.928-.368,2.895h-2.454c-.032.517-.009,1-.011,1.481s0,.974,0,1.46,0,.974,0,1.46,0,.974,0,1.461S1423.738,1175.928,1423.738,1176.459Z" transform="translate(-1418.303 -1160.27)" fill="#369"/>
</svg>
